DEG_SCF_FBW7_1	17434132	
DEG_SCF_FBW7_1	16023596	
DEG_SCF_FBW7_1	15992821	
DEG_SCF_FBW7_1	14536078	
DEG_SCF_FBW7_1	16054087	
DEG_SCF_FBW7_1	16825193	
DEG_SCF_FBW7_1	18079698	
DEG_SCF_FBW7_1	11533444	
DEG_SCF_FBW7_1	15103331	
DEG_SCF_FBW7_2	11585921	
DEG_SCF_FBW7_2	15611062	
DEG_SCF_FBW7_2	11461910	
DEG_SCF_TIR1_1	15546359	
DEG_SCF_TIR1_1	21734647	
DEG_SCF_TIR1_1	14617065	
DEG_SCF_TIR1_1	11595806	
DEG_SCF_TIR1_1	15992545	
DEG_SCF_TIR1_1	17410169	
DEG_SCF_TIR1_1	10758506	
DEG_SCF_TIR1_1	11713520	
DOC_USP7_MATH_2	15808506	
DOC_WW_Pin1_4	15788397	
DOC_WW_Pin1_4	16139797	
DOC_WW_Pin1_4	11533658	
DOC_WW_Pin1_4	12397362	
DOC_WW_Pin1_4	16476580	
DOC_WW_Pin1_4	21296877	
DOC_WW_Pin1_4	19439498	
DOC_WW_Pin1_4	20129060	
DOC_WW_Pin1_4	22608923	
DOC_WW_Pin1_4	19597489	
DOC_WW_Pin1_4	19638580	
DOC_WW_Pin1_4	18039859	
DOC_WW_Pin1_4	11432833	
DOC_WW_Pin1_4	19122240	
DOC_WW_Pin1_4	17159919	
DOC_WW_Pin1_4	17938171	
DOC_WW_Pin1_4	16123044	
DOC_WW_Pin1_4	16223725	
DOC_WW_Pin1_4	16365047	
DOC_WW_Pin1_4	20675384	
DOC_WW_Pin1_4	15048125	
DOC_WW_Pin1_4	19996102	
DOC_WW_Pin1_4	15175157	
DOC_WW_Pin1_4	11805292	
DOC_WW_Pin1_4	20682773	
DOC_WW_Pin1_4	15701524	
DOC_WW_Pin1_4	17468107	
DOC_WW_Pin1_4	17383430	
DOC_WW_Pin1_4	15670742	
DOC_WW_Pin1_4	11470801	
DOC_WW_Pin1_4	19584057	
DOC_WW_Pin1_4	19602287	
DOC_WW_Pin1_4	14690596	
DOC_WW_Pin1_4	1650491	
DOC_WW_Pin1_4	20622153	
DOC_WW_Pin1_4	19995909	
DOC_WW_Pin1_4	20920535	
DOC_WW_Pin1_4	10391244	
DOC_WW_Pin1_4	20080565	
DOC_WW_Pin1_4	16644721	
DOC_WW_Pin1_4	19151708	
DOC_WW_Pin1_4	19770516	
DOC_WW_Pin1_4	19338781	
DOC_WW_Pin1_4	21685363	
DOC_WW_Pin1_4	22002310	
DOC_WW_Pin1_4	17360425	
DOC_WW_Pin1_4	12388558	
DOC_WW_Pin1_4	17563747	
DOC_WW_Pin1_4	17347650	
DOC_WW_Pin1_4	19448664	
DOC_WW_Pin1_4	16699525	
DOC_WW_Pin1_4	18838553	
DOC_WW_Pin1_4	19060891	
DOC_WW_Pin1_4	19595712	
DOC_WW_Pin1_4	20801874	
DOC_WW_Pin1_4	20956805	
DOC_WW_Pin1_4	18359295	
DOC_WW_Pin1_4	21454638	
MOD_CDK_SPxK_1	10544291	
MOD_CDK_SPxK_1	20526282	
MOD_CDK_SPxK_1	22334659	
MOD_CDK_SPxK_1	19386263	
MOD_CDK_SPxK_1	19066288	
MOD_CDK_SPxK_1	19703905	
MOD_CDK_SPxK_1	1756735	
MOD_CDK_SPxK_1	16230527	
MOD_CDK_SPxK_1	24189531	
MOD_CDK_SPxK_1	16209941	
MOD_CDK_SPxK_1	12925736	
MOD_CDK_SPxK_1	11532947	
MOD_CDK_SPxK_1	16707497	
MOD_CDK_SPxK_1	23933132	
MOD_CDK_SPxK_1	12691662	
MOD_CDK_SPxK_1	25742493	
MOD_CDK_SPxK_1	16407259	
LIG_KEPE_1	19033273	
LIG_eIF4E_2	17667941	
MOD_CK2_1	8349691	
MOD_CK2_1	15066279	
MOD_CK2_1	12788938	
MOD_CK2_1	8139011	
MOD_CK2_1	19155274	
LIG_eIF4E_1	7651417	
LIG_eIF4E_1	16739988	
LIG_eIF4E_1	10872469	
LIG_eIF4E_1	14675538	
LIG_eIF4E_1	10394359	
LIG_eIF4E_1	9326485	
LIG_eIF4E_1	9118949	
LIG_eIF4E_1	14685270	
LIG_eIF4E_1	10406811	
DEG_COP1_1	12023303	
DEG_COP1_1	9659918	
DEG_COP1_1	12615916	
DEG_COP1_1	27041596	
DEG_COP1_1	25117710	
DEG_COP1_1	11226162	
DEG_COP1_1	21572435	
LIG_TRAF2_1	9418902	
LIG_TRAF2_1	10518213	
LIG_TRAF2_1	9718306	
LIG_TRAF2_1	14517219	
LIG_TRAF2_1	10411888	
LIG_TRAF2_1	8069916	
LIG_TRAF2_1	10196286	
LIG_TRAF2_1	958283	
LIG_TRAF2_1	8662842	
LIG_TRAF2_1	10206649	
LIG_TRAF2_2	10518213	
DOC_PP1_RVXF_1	12657641	
DOC_PP1_RVXF_1	10995432	
DOC_PP1_RVXF_1	12574161	
DOC_PP1_RVXF_1	20694007	
DOC_PP1_RVXF_1	10880350	
DOC_PP1_RVXF_1	16530423	
DOC_PP1_RVXF_1	10454550	
DOC_PP1_RVXF_1	12356757	
DOC_PP1_RVXF_1	11459182	
DOC_PP1_RVXF_1	17603999	
DOC_PP1_RVXF_1	10075680	
DOC_PP1_RVXF_1	15164081	
DOC_PP1_RVXF_1	9694816	
DOC_PP1_RVXF_1	10504266	
DOC_PP1_RVXF_1	20305656	
DOC_PP1_RVXF_1	10585469	
DOC_PP1_RVXF_1	15136561	
DOC_PP1_RVXF_1	9155014	
DOC_CKS1_1	24186061	
DOC_CKS1_1	24186063	
MOD_GSK3_1	11955436	
MOD_GSK3_1	11483158	
MOD_GSK3_1	1846781	
MOD_GSK3_1	17289590	
MOD_GSK3_1	16244663	
MOD_GSK3_1	19061640	
MOD_GSK3_1	22586270	
MOD_GSK3_1	14563837	
MOD_GSK3_1	19218245	
MOD_GSK3_1	15743413	
MOD_GSK3_1	14536078	
MOD_GSK3_1	15448698	
MOD_GSK3_1	8940068	
MOD_GSK3_1	12417018	
MOD_GSK3_1	17434145	
MOD_GSK3_1	10074433	
MOD_GSK3_1	12351631	
MOD_GSK3_1	18363964	
MOD_GSK3_1	18045539	
LIG_SUFU_1	24311597	
LIG_SUFU_1	12426310	
LIG_SUFU_1	21543335	
LIG_SUFU_1	24217340	
LIG_TRAF6	12140561	
LIG_TRAF6	18682563	
LIG_TRAF6	10318845	
LIG_PTB_Phospho_1	14607833	
LIG_PTB_Phospho_1	8599766	
LIG_PTB_Phospho_1	9099679	
LIG_PTB_Phospho_1	7537849	
LIG_PTB_Phospho_1	18381291	
LIG_PTB_Phospho_1	20739287	
LIG_PTB_Phospho_1	8524391	
LIG_PTB_Phospho_1	12789267	
LIG_PTB_Phospho_1	9697832	
LIG_PTB_Phospho_1	12606711	
LIG_PTB_Phospho_1	15476828	
LIG_PTB_Phospho_1	8643566	
LIG_PTB_Phospho_1	18156175	
LIG_PTB_Phospho_1	9083021	
LIG_PTB_Phospho_1	20603078	
LIG_PTB_Phospho_1	8026468	
LIG_PTB_Phospho_1	8626723	
LIG_PTB_Phospho_1	11044453	
LIG_PTB_Phospho_1	7543098	
LIG_Mtr4_Air2_1	25175027	
LIG_Mtr4_Air2_1	15935758	
LIG_Actin_RPEL_3	19008859	
LIG_Actin_RPEL_3	15107502	
LIG_Actin_RPEL_3	21673315	
LIG_Actin_RPEL_3	12732141	
LIG_Actin_RPEL_3	18025109	
LIG_Actin_RPEL_3	17588931	
LIG_Actin_RPEL_3	14565952	
LIG_Actin_RPEL_3	20818336	
LIG_SH2_STAT5	10978177	
LIG_SH2_STAT5	18721752	
LIG_SH2_STAT5	8617750	
LIG_SH2_STAT5	8638161	
LIG_SH2_STAT5	9121492	
LIG_SH2_STAT5	10811803	
LIG_SH2_STAT5	9257712	
LIG_SH2_STAT5	7537382	
LIG_SH2_STAT5	7983060	
LIG_SH2_STAT5	10362354	
LIG_SH2_STAT5	11368773	
LIG_RPA_C_Vert	17296725	
LIG_RPA_C_Vert	24910198	
LIG_RPA_C_Vert	19793862	
LIG_RPA_C_Vert	11081631	
LIG_SH2_STAT3	9864141	
LIG_SH2_STAT3	10747948	
LIG_FAT_LD_1	11909967	
LIG_FAT_LD_1	14527389	
LIG_FAT_LD_1	10330411	
LIG_FAT_LD_1	19358827	
LIG_FAT_LD_1	11304546	
LIG_FAT_LD_1	20489202	
LIG_FAT_LD_1	11463817	
LIG_FAT_LD_1	11134073	
LIG_SUMO_SIM_par_1	21199872	
LIG_SUMO_SIM_par_1	16524884	
LIG_SUMO_SIM_par_1	18842587	
LIG_SUMO_SIM_par_1	18538659	
LIG_SUMO_SIM_par_1	25497731	
LIG_SUMO_SIM_par_1	10961991	
LIG_SUMO_SIM_par_1	15590687	
LIG_SUMO_SIM_par_1	21965678	
LIG_SUMO_SIM_par_1	19416967	
LIG_SUMO_SIM_par_1	21474068	
LIG_SUMO_SIM_par_1	16204249	
LIG_SUMO_SIM_par_1	20584900	
LIG_SUMO_SIM_par_1	20176810	
LIG_SUMO_SIM_par_1	18408734	
LIG_SUMO_SIM_par_1	17081986	
LIG_SUMO_SIM_par_1	17081985	
LIG_SUMO_SIM_par_1	15388847	
LIG_SUMO_SIM_par_1	15931224	
LIG_SUMO_SIM_par_1	18691969	
LIG_SUMO_SIM_par_1	17762865	
LIG_SUMO_SIM_par_1	17762864	
LIG_SUMO_SIM_par_1	19553342	
LIG_14-3-3_ChREBP_3	26984404	
LIG_Dynein_DLC8_1	10783235	
LIG_Dynein_DLC8_1	12591950	
LIG_Dynein_DLC8_1	11148209	
LIG_Dynein_DLC8_1	11178896	
LIG_Dynein_DLC8_1	17570393	
LIG_Dynein_DLC8_1	17438267	
LIG_Dynein_DLC8_1	10198631	
LIG_Dynein_DLC8_1	17551010	
LIG_SH2_SRC	22586277	
LIG_SH2_SRC	11279201	
LIG_SH2_SRC	8985339	
LIG_SH2_SRC	10360179	
LIG_SH2_SRC	16525419	
LIG_SH2_SRC	17606906	
LIG_SH2_SRC	7739563	
LIG_SH2_SRC	11724572	
LIG_SH2_SRC	16436281	
LIG_SH2_SRC	11604500	
LIG_NRBOX	9430642	
LIG_NRBOX	16990259	
LIG_NRBOX	12556447	
LIG_NRBOX	12215540	
LIG_NRBOX	15065852	
LIG_NRBOX	18469005	
LIG_NRBOX	12724417	
LIG_NRBOX	12151000	
LIG_NRBOX	12165860	
LIG_NRBOX	12502716	
LIG_NRBOX	15199063	
LIG_NRBOX	9192902	
LIG_NRBOX	11937504	
LIG_NRBOX	14517294	
LIG_GYF	15105431	
LIG_GYF	12426371	
TRG_Cilium_RVxP_2	16782012	
TRG_Cilium_RVxP_2	16537653	
TRG_ER_FFAT_1	16004875	
TRG_ER_FFAT_1	16895911	
TRG_ER_FFAT_1	17804640	
TRG_ER_FFAT_1	15212954	
TRG_ER_FFAT_1	15545272	
TRG_ER_FFAT_1	19289470	
TRG_ER_FFAT_1	12727870	
LIG_UFM1_UFIM_1	26929408	
TRG_Cilium_Arf4_1	9724753	
LIG_TYR_ITAM	18818282	
LIG_TYR_ITAM	8798606	
LIG_TYR_ITAM	7761456	
LIG_TYR_ITAM	9531288	
LIG_TYR_ITAM	9698567	
LIG_TYR_ITAM	8810294	
LIG_TYR_ITAM	15335855	
LIG_TYR_ITAM	10748115	
LIG_TYR_ITAM	17617578	
LIG_TYR_ITAM	8647168	
LIG_TYR_ITAM	9295038	
LIG_TYR_ITAM	1439759	
MOD_PKA_2	11416140	
MOD_PKA_2	15946941	
MOD_PKA_2	12417592	
MOD_PKA_2	20067577	
MOD_PKA_2	8910529	
MOD_PKA_2	16297070	
MOD_PKA_2	18299387	
MOD_PKA_2	17612487	
MOD_PKA_2	16636079	
MOD_PKA_2	18298377	
MOD_PKA_2	18768928	
MOD_PKA_2	12351631	
MOD_PKA_2	10364454	
MOD_PKA_2	11283605	
MOD_PKA_2	10969067	
MOD_PKA_2	11171050	
MOD_PKA_2	10446213	
MOD_PKA_2	12887314	
MOD_PKA_2	10207092	
MOD_PKA_2	17913709	
MOD_PKA_2	11162439	
MOD_PKA_2	11805122	
MOD_PKA_2	8621594	
MOD_PKA_2	18505929	
LIG_Pex14_3	24235149	
LIG_Pex14_1	11978862	
LIG_Pex14_1	19584060	
LIG_Pex14_1	12974625	
LIG_Pex14_1	11865044	
LIG_Pex14_1	10660573	
LIG_Pex14_1	15929724	
LIG_Pex14_1	11101511	
MOD_WntLipid	12717451	
CLV_PCSK_FUR_1	20062797	
CLV_PCSK_FUR_1	10603327	
CLV_PCSK_FUR_1	16432208	
CLV_PCSK_FUR_1	12637569	
CLV_PCSK_FUR_1	15564468	
CLV_PCSK_FUR_1	11063880	
CLV_PCSK_FUR_1	12487813	
CLV_PCSK_FUR_1	19218203	
CLV_PCSK_FUR_1	8163529	
CLV_PCSK_FUR_1	11369882	
CLV_PCSK_FUR_1	19553314	
CLV_PCSK_FUR_1	9576958	
CLV_PCSK_FUR_1	7774724	
LIG_BH_BH3_1	21060336	
LIG_BH_BH3_1	18462686	
LIG_BH_BH3_1	9305912	
LIG_BH_BH3_1	18589438	
LIG_BH_BH3_1	17389404	
LIG_BH_BH3_1	17337444	
LIG_BH_BH3_1	9020082	
LIG_BH_BH3_1	15989957	
LIG_BH_BH3_1	9525867	
LIG_BH_BH3_1	15694340	
LIG_BH_BH3_1	9731710	
LIG_BH_BH3_1	9604928	
LIG_BH_BH3_1	15383288	
LIG_BH_BH3_1	21731739	
LIG_BH_BH3_1	9305851	
LIG_BH_BH3_1	14499110	
LIG_EH_1	12807910	
LIG_EH_1	15020713	
LIG_EH_1	10336464	
LIG_EH_1	11389591	
LIG_EH_1	9535728	
LIG_EH_1	17914359	
LIG_EH_1	9531549	
LIG_EH_1	10471276	
LIG_EH_1	15631619	
LIG_EH_1	11062555	
LIG_EH_1	18200045	
LIG_EH_1	9428629	
LIG_EH_1	9723620	
LIG_EH_1	10777571	
LIG_EH_1	16251358	
LIG_EH_1	14726597	
LIG_EH_1	15155807	
LIG_EH_1	15371016	
LIG_EH_1	12529323	
LIG_EH_1	10557078	
LIG_EH_1	11940605	
LIG_EH_1	17997305	
LIG_EH_1	15182197	
LIG_EH_1	10064583	
LIG_EH_1	15930129	
LIG_EH_1	9303539	
LIG_EH_1	15184881	
LIG_EH_1	10757979	
LIG_EH_1	15265867	
LIG_EH_1	14676205	
LIG_EH_1	12364336	
LIG_EH_1	10567358	
LIG_EH_1	9446614	
LIG_EH_1	10801423	
LIG_EH_1	11381094	
LIG_EH_1	9721102	
LIG_KEPE_2	19033273	
LIG_PAM2_1	14685257	
LIG_PAM2_1	16601676	
LIG_PAM2_1	16835262	
LIG_PAM2_1	14729960	
LIG_PAM2_1	17595167	
LIG_PAM2_1	20181956	
LIG_PAM2_1	17267499	
LIG_PAM2_1	16804161	
LIG_PAM2_1	11997512	
LIG_PAM2_1	20096703	
LIG_PAM2_1	17785442	
LIG_PAM2_1	20573744	
LIG_PAM2_1	18056425	
LIG_PAM2_1	16554297	
LIG_PAM2_1	15650869	
LIG_PAM2_1	20595394	
LIG_PAM2_1	20418951	
LIG_PAM2_1	15159636	
LIG_PAM2_1	21098120	
LIG_PAM2_2	20098421	
LIG_PAM2_2	21063388	
LIG_PAM2_2	20181956	
LIG_PAM2_2	19716330	
DOC_AGCK_PIF_3	12372837	
DOC_AGCK_PIF_3	10698939	
DOC_AGCK_PIF_3	14749726	
DOC_AGCK_PIF_3	16362044	
DOC_AGCK_PIF_3	15299527	
DOC_AGCK_PIF_3	21531713	
LIG_GBD_Chelix_1	26554011	
LIG_GBD_Chelix_1	18650809	
LIG_GBD_Chelix_1	17893247	
LIG_GBD_Chelix_1	18650806	
LIG_ANK_PxLPxL_1	16236793	
LIG_ANK_PxLPxL_1	15964851	
LIG_ANK_PxLPxL_1	22649097	
LIG_ANK_PxLPxL_1	11095640	
LIG_ANK_PxLPxL_1	25752541	
LIG_PTB_Apo_2	18650440	
LIG_PTB_Apo_2	18833287	
LIG_PTB_Apo_2	9535908	
LIG_PTB_Apo_2	10747019	
LIG_PTB_Apo_2	18156175	
LIG_PTB_Apo_2	8887653	
LIG_PTB_Apo_2	10373567	
LIG_PTB_Apo_2	9846878	
LIG_PTB_Apo_2	15115822	
LIG_PTB_Apo_2	12737822	
LIG_PTB_Apo_2	12535520	
LIG_PTB_Apo_2	11741908	
LIG_PTB_Apo_2	12826668	
LIG_PTB_Apo_2	11729193	
LIG_PTB_Apo_2	18638481	
LIG_PTB_Apo_2	16382151	
LIG_PTB_Apo_2	20599701	
LIG_PTB_Apo_2	19138666	
LIG_PTB_Apo_2	9321393	
LIG_PTB_Apo_2	9837937	
LIG_PTB_Apo_2	12606711	
LIG_PTB_Apo_2	9065427	
LIG_CAP-Gly_1	16954346	
LIG_CAP-Gly_1	16148041	
LIG_CAP-Gly_1	16949363	
LIG_CAP-Gly_1	17828277	
LIG_CAP-Gly_1	16109370	
LIG_CAP-Gly_1	17563362	
LIG_CAP-Gly_2	21646404	
LIG_PDZ_Class_3	10331866	
DOC_USP7_MATH_1	20713061	
DOC_USP7_MATH_1	16474402	
DOC_USP7_MATH_1	16402859	
CLV_MEL_PAP_1	12185078	
CLV_MEL_PAP_1	11240640	
CLV_MEL_PAP_1	11240641	
CLV_MEL_PAP_1	7644494	
CLV_MEL_PAP_1	7644493	
CLV_MEL_PAP_1	10402205	
CLV_MEL_PAP_1	15857760	
CLV_MEL_PAP_1	9459428	
CLV_MEL_PAP_1	9537761	
CLV_MEL_PAP_1	10050770	
CLV_C14_Caspase3-7	8900201	
CLV_C14_Caspase3-7	16286477	
CLV_C14_Caspase3-7	9171063	
CLV_C14_Caspase3-7	21237154	
CLV_C14_Caspase3-7	19820703	
CLV_C14_Caspase3-7	10479680	
CLV_C14_Caspase3-7	11420704	
CLV_C14_Caspase3-7	8626669	
CLV_C14_Caspase3-7	11815631	
CLV_C14_Caspase3-7	12788938	
CLV_C14_Caspase3-7	16777606	
CLV_C14_Caspase3-7	10085113	
CLV_C14_Caspase3-7	9535906	
CLV_C14_Caspase3-7	9712874	
CLV_C14_Caspase3-7	17431426	
CLV_C14_Caspase3-7	7629113	
CLV_C14_Caspase3-7	11500511	
CLV_C14_Caspase3-7	11278283	
CLV_C14_Caspase3-7	8605870	
CLV_C14_Caspase3-7	11283607	
CLV_C14_Caspase3-7	8642305	
CLV_C14_Caspase3-7	18832097	
CLV_C14_Caspase3-7	8670824	
CLV_C14_Caspase3-7	8557034	
CLV_C14_Caspase3-7	11278782	
CLV_C14_Caspase3-7	11076937	
CLV_C14_Caspase3-7	8090205	
CLV_C14_Caspase3-7	10712510	
CLV_C14_Caspase3-7	14517333	
DEG_ODPH_VHL_1	12050673	
DEG_ODPH_VHL_1	8682312	
DEG_ODPH_VHL_1	12538644	
DEG_ODPH_VHL_1	14691554	
DEG_ODPH_VHL_1	12004076	
DEG_ODPH_VHL_1	11427734	
LIG_14-3-3_CanoR_1	16868027	
LIG_14-3-3_CanoR_1	17032734	
LIG_14-3-3_CanoR_1	16943424	
LIG_14-3-3_CanoR_1	20679480	
LIG_14-3-3_CanoR_1	26888287	
LIG_14-3-3_CanoR_1	16679322	
LIG_14-3-3_CanoR_1	10949026	
LIG_14-3-3_CanoR_1	16114898	
LIG_14-3-3_CanoR_1	9341175	
LIG_14-3-3_CanoR_1	11336675	
LIG_14-3-3_CanoR_1	25909186	
LIG_14-3-3_CanoR_1	17085597	
LIG_14-3-3_CanoR_1	16246723	
LIG_14-3-3_CanoR_1	11555644	
LIG_14-3-3_CanoR_1	10230800	
LIG_14-3-3_CanoR_1	19481529	
LIG_14-3-3_CanoR_1	15677482	
LIG_14-3-3_CanoR_1	22634725	
LIG_14-3-3_CanoR_1	20823509	
LIG_14-3-3_CanoR_1	19531644	
LIG_14-3-3_CanoR_1	17974916	
LIG_14-3-3_CanoR_1	22151054	
LIG_14-3-3_CanoR_1	16153182	
LIG_14-3-3_CanoR_1	9369453	
LIG_14-3-3_CanoR_1	19172738	
LIG_14-3-3_CanoR_1	10411906	
LIG_14-3-3_CanoR_1	20037628	
LIG_14-3-3_CanoR_1	21900244	
LIG_14-3-3_CanoR_1	10559254	
LIG_14-3-3_CanoR_1	12757707	
LIG_14-3-3_CanoR_1	12535517	
LIG_14-3-3_CanoR_1	11818066	
LIG_14-3-3_CanoR_1	19662078	
LIG_14-3-3_CanoR_1	8929531	
LIG_14-3-3_CanoR_1	9428519	
LIG_14-3-3_CanoR_1	12501243	
LIG_14-3-3_CanoR_1	11114197	
LIG_14-3-3_CanoR_1	11118213	
LIG_14-3-3_CanoR_1	21189416	
LIG_14-3-3_CanoR_1	23808890	
LIG_14-3-3_CanoR_1	15934090	
LIG_14-3-3_CanoR_1	10869435	
LIG_14-3-3_CanoR_1	16308562	
LIG_14-3-3_CanoR_1	14690436	
LIG_14-3-3_CanoR_1	8601312	
LIG_14-3-3_CanoR_1	9858547	
LIG_14-3-3_CanoR_1	11864996	
LIG_14-3-3_CanoR_1	11985497	
LIG_14-3-3_CanoR_1	10958686	
DOC_MAPK_MEF2A_6	12410835	
DOC_MAPK_MEF2A_6	17303758	
DOC_MAPK_MEF2A_6	26538579	
DOC_MAPK_MEF2A_6	18060821	
DOC_MAPK_MEF2A_6	16648477	
DOC_MAPK_MEF2A_6	21873571	
DOC_MAPK_MEF2A_6	10330143	
DOC_MAPK_MEF2A_6	24037507	
DOC_MAPK_MEF2A_6	11786537	
DOC_MAPK_MEF2A_6	23047924	
DOC_MAPK_MEF2A_6	25172143	
LIG_BRCT_MDC1_1	16377563	
DEG_CRL4_CDT2_2	19081076	
CLV_PCSK_PC7_1	19651771	
LIG_CORNRBOX	20581824	
LIG_CORNRBOX	10617569	
LIG_CORNRBOX	19913032	
LIG_CORNRBOX	11845213	
DEG_MDM2_SWIB_1	26025930	
DEG_MDM2_SWIB_1	9632782	
DEG_MDM2_SWIB_1	25591003	
DEG_MDM2_SWIB_1	12646252	
DEG_MDM2_SWIB_1	22337874	
DEG_MDM2_SWIB_1	17284038	
DEG_MDM2_SWIB_1	8875929	
DEG_MDM2_SWIB_1	11445003	
LIG_OCRL_FandH_1	17765681	
LIG_OCRL_FandH_1	21233288	
LIG_OCRL_FandH_1	21666675	
LIG_OCRL_FandH_1	20133602	
LIG_OCRL_FandH_1	18307981	
DOC_MAPK_FxFP_2	11029469	
DOC_MAPK_FxFP_2	12134156	
DOC_MAPK_FxFP_2	15950189	
DOC_MAPK_FxFP_2	25885538	
DOC_MAPK_FxFP_2	21098038	
DOC_MAPK_FxFP_2	11371562	
DOC_MAPK_FxFP_2	14976550	
DOC_MAPK_FxFP_2	16286470	
DOC_MAPK_FxFP_2	14734536	
DOC_MAPK_FxFP_2	16024771	
DOC_MAPK_FxFP_2	15184391	
DOC_MAPK_FxFP_2	14673150	
DOC_MAPK_FxFP_2	9925641	
DEG_SPOP_SBC_1	19818708	
DOC_GSK3_Axin_1	11390362	
DOC_GSK3_Axin_1	9482734	
DOC_GSK3_Axin_1	20043192	
DOC_GSK3_Axin_1	12554650	
DOC_GSK3_Axin_1	10490650	
LIG_Actin_WH2_2	17942696	
LIG_Actin_WH2_2	17292833	
LIG_Actin_WH2_2	1464307	
LIG_Actin_WH2_2	15674283	
LIG_Actin_WH2_2	18005688	
LIG_Actin_WH2_2	25860613	
LIG_Actin_WH2_2	10556052	
LIG_Actin_WH2_2	15534215	
LIG_Actin_WH2_2	1529676	
LIG_Actin_WH2_2	8617195	
LIG_Actin_WH2_2	11030623	
LIG_Actin_WH2_2	20538977	
LIG_Actin_WH2_2	16275905	
LIG_Actin_WH2_1	17942696	
LIG_Actin_WH2_1	18005688	
LIG_Actin_WH2_1	16403731	
LIG_Actin_WH2_1	9412475	
LIG_Actin_WH2_1	10556052	
LIG_Actin_WH2_1	15674283	
LIG_Actin_WH2_1	20538977	
LIG_Actin_WH2_1	11146629	
LIG_Actin_WH2_1	16275905	
LIG_WH1	12372256	
LIG_LYPXL_L_2	14505569	
LIG_LYPXL_L_2	18066081	
LIG_LYPXL_L_2	17277784	
LIG_LYPXL_L_2	17350572	
LIG_LYPXL_L_2	14519844	
DOC_MAPK_RevD_3	25255283	
DOC_MAPK_RevD_3	15568999	
DOC_MAPK_RevD_3	25730857	
DOC_MAPK_RevD_3	23047924	
DOC_MAPK_RevD_3	10655591	
DOC_MAPK_RevD_3	12832467	
DOC_MAPK_RevD_3	11035004	
DOC_MAPK_JIP1_4	25301550	
DOC_MAPK_JIP1_4	15141161	
DOC_MAPK_JIP1_4	12167088	
DOC_MAPK_JIP1_4	20176805	
DOC_MAPK_JIP1_4	26538579	
DOC_MAPK_JIP1_4	23142346	
DOC_MAPK_JIP1_4	23047924	
DOC_MAPK_JIP1_4	26370088	
DOC_MAPK_JIP1_4	23981301	
DOC_MAPK_JIP1_4	12417588	
DOC_MAPK_JIP1_4	20865152	
LIG_CNOT1_NIM_1	24736845	
LIG_CNOT1_NIM_1	21195170	
LIG_CNOT1_NIM_1	22448252	
LIG_Vh1_VBS_1	16826238	
LIG_Vh1_VBS_1	15070891	
LIG_Vh1_VBS_1	17088427	
LIG_Vh1_VBS_1	14702644	
LIG_Vh1_VBS_1	16460027	
LIG_Vh1_VBS_1	21525010	
LIG_Vh1_VBS_1	16135522	
LIG_Vh1_VBS_1	21841197	
LIG_Vh1_VBS_1	15642262	
DOC_PP2A_B56_1	27453045	
DOC_PP2A_B56_1	23746640	
DOC_PP2A_B56_1	27350047	
DOC_WD40_RPTOR_TOS_1	12912989	
MOD_Plk_4	25264260	
MOD_Plk_4	20032307	
MOD_Plk_4	26101219	
MOD_Plk_4	20531387	
MOD_Plk_4	21725316	
MOD_Plk_1	15070733	
MOD_Plk_1	20573420	
MOD_Plk_1	19468300	
MOD_Plk_1	16260496	
MOD_Plk_1	16980960	
MOD_Plk_1	19160488	
MOD_Plk_1	19509060	
MOD_Plk_1	21498573	
MOD_Plk_1	11897663	
MOD_Plk_1	18957422	
MOD_Plk_1	27238966	
MOD_Plk_1	12815053	
MOD_Plk_1	19473992	
MOD_Plk_1	27579997	
MOD_Plk_1	27579998	
MOD_Plk_1	12738781	
MOD_Plk_1	19468302	
MOD_CMANNOS	10551839	
MOD_CMANNOS	10878002	
MOD_CMANNOS	10207176	
MOD_CMANNOS	7947762	
DOC_MAPK_NFAT4_5	9374467	
DOC_MAPK_NFAT4_5	25301550	
DOC_MAPK_NFAT4_5	8157646	
DOC_MAPK_NFAT4_5	12052834	
DOC_MAPK_NFAT4_5	10471813	
DOC_MAPK_NFAT4_5	26538579	
DOC_MAPK_NFAT4_5	23047924	
DOC_MAPK_NFAT4_5	26370088	
DOC_MAPK_NFAT4_5	12788955	
LIG_GSK3_LRP6_1	14731402	
LIG_SUMO_SIM_anti_2	17081986	
LIG_SUMO_SIM_anti_2	10961991	
LIG_SUMO_SIM_anti_2	17081985	
LIG_SUMO_SIM_anti_2	21192925	
LIG_SUMO_SIM_anti_2	15388847	
LIG_SUMO_SIM_anti_2	15931224	
LIG_SUMO_SIM_anti_2	16524884	
LIG_SUMO_SIM_anti_2	15590687	
LIG_SUMO_SIM_anti_2	18691969	
LIG_SUMO_SIM_anti_2	19553342	
LIG_SUMO_SIM_anti_2	17060459	
LIG_SUMO_SIM_anti_2	19416967	
LIG_SUMO_SIM_anti_2	20176810	
LIG_SUMO_SIM_anti_2	12565818	
LIG_SUMO_SIM_anti_2	21474068	
LIG_SUMO_SIM_anti_2	18408734	
LIG_SUMO_SIM_anti_2	18656483	
LIG_PDZ_Class_1	11498591	
LIG_PDZ_Class_1	17473018	
LIG_PDZ_Class_1	16634638	
LIG_PDZ_Class_1	11970895	
LIG_PDZ_Class_1	9677412	
LIG_PDZ_Class_1	9581761	
LIG_PDZ_Class_1	11786550	
LIG_PDZ_Class_1	18835279	
LIG_PDZ_Class_1	20086240	
LIG_PDZ_Class_1	12597860	
LIG_PDZ_Class_1	11304524	
LIG_PDZ_Class_1	17267502	
LIG_PDZ_Class_1	19297620	
LIG_PDZ_Class_1	12095257	
LIG_PDZ_Class_1	19072119	
LIG_PDZ_Class_1	20868367	
LIG_PDZ_Class_1	16467373	
LIG_PDZ_Class_1	12842047	
LIG_PDZ_Class_1	16990550	
LIG_PDZ_Class_1	11882663	
LIG_PDZ_Class_1	11163274	
LIG_PDZ_Class_1	10562288	
LIG_PDZ_Class_1	21238461	
LIG_PDZ_Class_1	11498538	
LIG_PDZ_Class_1	17161370	
LIG_PDZ_Class_1	12070168	
LIG_PDZ_Class_1	18828675	
LIG_PDZ_Class_1	10357812	
LIG_PDZ_Class_1	11000240	
LIG_PDZ_Class_1	20430886	
LIG_PDZ_Class_1	15255944	
LIG_PDZ_Class_1	20142502	
LIG_PDZ_Class_1	18155042	
LIG_PDZ_Class_1	20117114	
LIG_PDZ_Class_1	17396155	
LIG_PDZ_Class_1	12954649	
LIG_PDZ_Class_1	17069616	
LIG_PDZ_Class_1	8674113	
LIG_PDZ_Class_1	17713926	
LIG_PDZ_Class_1	15466885	
LIG_PDZ_Class_1	17384233	
LIG_PDZ_Class_1	11967229	
LIG_PDZ_Class_1	19635485	
LIG_PDZ_Class_1	11118213	
LIG_PDZ_Class_1	11805122	
LIG_PDZ_Class_1	9482110	
LIG_KLC1_WD_1	19861499	
LIG_KLC1_WD_1	21915095	
LIG_KLC1_WD_1	22172677	
LIG_KLC1_WD_1	25516977	
LIG_KLC1_WD_1	25472445	
LIG_KLC1_WD_1	20195521	
LIG_KLC1_WD_1	23519214	
LIG_KLC1_WD_1	17332754	
LIG_KLC1_WD_1	14963148	
LIG_KLC1_WD_1	22404616	
LIG_KLC1_WD_1	19706427	
LIG_KLC1_WD_1	20943972	
LIG_KLC1_WD_1	16760430	
DEG_Kelch_actinfilin_1	17062563	
MOD_TYR_DYR	12604362	
MOD_TYR_DYR	10816418	
MOD_TYR_DYR	11672423	
MOD_TYR_DYR	9918863	
MOD_TYR_DYR	12522270	
MOD_TYR_DYR	9748265	
LIG_WD40_WDR5_VDV_2	20716525	
DOC_MAPK_gen_1	10330143	
DOC_MAPK_gen_1	11786537	
DOC_MAPK_gen_1	17046812	
DOC_MAPK_gen_1	10811804	
DOC_MAPK_gen_1	16364919	
DOC_MAPK_gen_1	16567630	
DOC_MAPK_gen_1	15132737	
DOC_MAPK_gen_1	14734536	
DOC_MAPK_gen_1	8945519	
DOC_MAPK_gen_1	15616583	
DOC_MAPK_gen_1	11278799	
DOC_MAPK_gen_1	11953434	
DOC_MAPK_gen_1	11134045	
DOC_MAPK_gen_1	11104681	
DOC_MAPK_gen_1	9925641	
TRG_NLS_MonoExtN_4	15857993	
TRG_NLS_MonoExtN_4	12890668	
TRG_NLS_MonoExtN_4	15147984	
TRG_NLS_MonoExtN_4	3054508	
TRG_NLS_MonoExtN_4	6096007	
TRG_NLS_MonoExtN_4	1333132	
TRG_NLS_MonoExtN_4	3123916	
TRG_NLS_MonoExtN_4	12852786	
TRG_NLS_MonoExtN_4	20040518	
TRG_NLS_MonoExtN_4	8590795	
TRG_NLS_MonoExtN_4	2104804	
TRG_NLS_MonoExtN_4	12399470	
TRG_NLS_MonoExtN_4	3000623	
TRG_NLS_MonoExtN_4	20512930	
TRG_NLS_MonoExtN_4	19270695	
TRG_NLS_MonoExtN_4	8955125	
TRG_NLS_MonoExtN_4	9753728	
TRG_NLS_MonoExtN_4	11050185	
TRG_NLS_MonoExtN_4	9733808	
TRG_NLS_MonoExtN_4	10233168	
TRG_NLS_MonoExtN_4	1322607	
TRG_NLS_MonoExtN_4	1584763	
TRG_NLS_MonoExtN_4	22770219	
TRG_NLS_MonoExtN_4	10745017	
DEG_APCC_TPR_1	21687678	
DEG_APCC_TPR_1	22844260	
DEG_APCC_TPR_1	23288039	
DEG_APCC_TPR_1	19362536	
DEG_APCC_TPR_1	17944809	
DEG_APCC_TPR_1	11524682	
DEG_APCC_TPR_1	14742878	
DEG_APCC_TPR_1	21118994	
DEG_APCC_TPR_1	16648845	
DEG_APCC_TPR_1	18020708	
DEG_APCC_TPR_1	18082611	
DEG_APCC_TPR_1	12956947	
DEG_APCC_TPR_1	15916961	
DEG_APCC_TPR_1	16763193	
DEG_APCC_TPR_1	12574115	
DEG_APCC_TPR_1	9736616	
LIG_LRP6_Inhibitor_1	19553665	
LIG_LRP6_Inhibitor_1	21944579	
LIG_LRP6_Inhibitor_1	22696217	
DEG_APCC_DBOX_1	1846030	
DEG_APCC_DBOX_1	8670806	
DEG_APCC_DBOX_1	15923616	
DEG_APCC_DBOX_1	16810178	
DEG_APCC_DBOX_1	888523	
DEG_APCC_DBOX_1	15014503	
DEG_APCC_DBOX_1	23091007	
DEG_APCC_DBOX_1	14734534	
DEG_APCC_DBOX_1	8885231	
DEG_APCC_DBOX_1	10411507	
DEG_APCC_DBOX_1	15536123	
DEG_APCC_DBOX_1	11707286	
DEG_APCC_DBOX_1	12208850	
DEG_APCC_DBOX_1	1321060	
DEG_APCC_DBOX_1	16204042	
DEG_APCC_DBOX_1	9635433	
DEG_APCC_KENBOX_2	15837422	
DEG_APCC_KENBOX_2	10733526	
DEG_APCC_KENBOX_2	11694576	
DEG_APCC_KENBOX_2	11719221	
DEG_APCC_KENBOX_2	15923616	
DEG_APCC_KENBOX_2	11842186	
DEG_APCC_KENBOX_2	10995389	
DEG_APCC_KENBOX_2	17158872	
DEG_APCC_KENBOX_2	11562348	
DEG_APCC_KENBOX_2	17726374	
DEG_APCC_KENBOX_2	18596038	
DEG_APCC_KENBOX_2	23091007	
DEG_APCC_KENBOX_2	17376772	
DEG_APCC_KENBOX_2	22193957	
DEG_APCC_KENBOX_2	11179223	
DEG_APCC_KENBOX_2	14963168	
TRG_NLS_Bipartite_1	15340083	
TRG_NLS_Bipartite_1	11847229	
TRG_NLS_Bipartite_1	10336485	
TRG_NLS_Bipartite_1	17310249	
TRG_NLS_Bipartite_1	3417784	
TRG_NLS_Bipartite_1	12695505	
TRG_NLS_Bipartite_1	10321742	
TRG_NLS_Bipartite_1	12417334	
TRG_NLS_Bipartite_1	10551826	
TRG_NLS_Bipartite_1	1652372	
TRG_NLS_Bipartite_1	8391110	
TRG_NLS_Bipartite_1	8336704	
TRG_NLS_Bipartite_1	10764582	
MOD_N-GLC_2	1694179	
MOD_N-GLC_2	9287313	
MOD_N-GLC_2	6896877	
MOD_N-GLC_2	10731668	
MOD_N-GLC_2	3524673	
LIG_Mtr4_Trf4_1	25589546	
LIG_Mtr4_Trf4_1	25175027	
LIG_Mtr4_Trf4_1	15935758	
LIG_Mtr4_Trf4_1	20403971	
LIG_G3BP_FGDF_1	16571828	
LIG_G3BP_FGDF_1	23087212	
LIG_G3BP_FGDF_1	24623412	
LIG_G3BP_FGDF_1	22623775	
LIG_G3BP_FGDF_1	22837213	
LIG_G3BP_FGDF_1	25658430	
LIG_G3BP_FGDF_1	26384002	
LIG_G3BP_FGDF_1	18684830	
LIG_G3BP_FGDF_1	11439350	
MOD_N-GLC_1	8530385	
MOD_N-GLC_1	11320094	
MOD_N-GLC_1	11133752	
MOD_N-GLC_1	11459848	
MOD_N-GLC_1	10066782	
MOD_N-GLC_1	15194804	
MOD_N-GLC_1	7635146	
MOD_N-GLC_1	19534833	
MOD_N-GLC_1	8615697	
MOD_N-GLC_1	2355006	
MOD_N-GLC_1	11502795	
MOD_N-GLC_1	16987985	
MOD_N-GLC_1	9433921	
MOD_N-GLC_1	12438572	
MOD_N-GLC_1	10211957	
MOD_N-GLC_1	10364201	
MOD_N-GLC_1	11706042	
MOD_N-GLC_1	9766811	
MOD_N-GLC_1	9405425	
MOD_N-GLC_1	2468158	
MOD_N-GLC_1	11098061	
MOD_N-GLC_1	12356908	
MOD_N-GLC_1	7721803	
MOD_N-GLC_1	9544990	
MOD_N-GLC_1	10828016	
MOD_N-GLC_1	8280063	
MOD_N-GLC_1	10982389	
MOD_N-GLC_1	9852126	
MOD_N-GLC_1	12218058	
MOD_N-GLC_1	11181517	
MOD_N-GLC_1	12775768	
MOD_N-GLC_1	8885240	
MOD_N-GLC_1	12072528	
MOD_SUMO_rev_2	24782567	
MOD_SUMO_rev_2	25114211	
MOD_SUMO_rev_2	25218447	
MOD_OGLYCOS	3149637	
LIG_LYPXL_S_1	18066081	
LIG_LYPXL_S_1	17158451	
LIG_LYPXL_S_1	12588984	
LIG_LYPXL_S_1	17350572	
LIG_LYPXL_S_1	20392845	
LIG_LYPXL_S_1	14519844	
LIG_LYPXL_S_1	15908698	
LIG_LYPXL_S_1	14505569	
LIG_WW_2	9407065	
LIG_WW_2	9171351	
LIG_WW_2	8605874	
LIG_WW_3	19592703	
LIG_WW_3	10744724	
LIG_NBox_RRM_1	16914741	
LIG_NBox_RRM_1	20711187	
LIG_HP1_1	11959914	
LIG_HP1_1	10549285	
LIG_HP1_1	10938122	
LIG_HP1_1	16637071	
LIG_HP1_1	11112778	
LIG_HP1_1	14765118	
LIG_HP1_1	10562550	
LIG_HP1_1	12154074	
LIG_HP1_1	12163401	
LIG_HP1_1	11266362	
LIG_RRM_PRI_1	16936729	
TRG_ER_diLys_1	14699056	
TRG_ER_diLys_1	2527615	
TRG_ER_diLys_1	7744968	
TRG_ER_diLys_1	10899983	
TRG_ER_diLys_1	9472029	
TRG_ER_diLys_1	2120038	
TRG_ER_diLys_1	10329713	
TRG_ER_diLys_1	15220404	
TRG_ER_diLys_1	7492314	
TRG_ER_diLys_1	15932921	
TRG_ER_diLys_1	15140989	
LIG_SH3_2	12453410	
LIG_SH3_2	10805734	
LIG_SH3_2	8294442	
LIG_SH3_2	7859737	
LIG_SH3_2	11685249	
LIG_SH3_2	23334917	
LIG_SH3_2	9582365	
LIG_SH3_2	15657040	
LIG_SH3_2	7479864	
LIG_SH3_2	15483625	
LIG_SH3_2	8479541	
LIG_SH3_2	16530520	
LIG_SH3_2	7735837	
LIG_SH3_2	19656877	
LIG_SH3_2	8662921	
LIG_SH3_2	10087260	
LIG_SH3_2	9148966	
LIG_SH3_2	9121467	
LIG_SH3_2	15992821	
LIG_SH3_2	8798379	
LIG_SH3_2	11498538	
LIG_SH3_2	19718658	
LIG_SH3_2	8681387	
LIG_MAD2	12006501	
LIG_MAD2	11804586	
DOC_ANK_TNKS_1	14596906	
DOC_ANK_TNKS_1	22153077	
DOC_ANK_TNKS_1	19759537	
DOC_ANK_TNKS_1	21478859	
DOC_ANK_TNKS_1	12080061	
LIG_BIR_III_3	11511363	
LIG_BIR_III_3	15107838	
LIG_BIR_III_3	11818063	
TRG_Golgi_diPhe_1	10359606	
TRG_Golgi_diPhe_1	9472029	
TRG_Golgi_diPhe_1	7492314	
LIG_PDZ_Class_2	12493751	
LIG_PDZ_Class_2	16007100	
LIG_PDZ_Class_2	16095618	
LIG_PDZ_Class_2	19228696	
LIG_PDZ_Class_2	20047332	
LIG_PDZ_Class_2	11083918	
LIG_PDZ_Class_2	17572384	
LIG_PDZ_Class_2	17914463	
LIG_PDZ_Class_2	15466885	
LIG_PDZ_Class_2	10551805	
LIG_PDZ_Class_2	9305870	
LIG_PDZ_Class_2	12679023	
LIG_PDZ_Class_2	16533050	
LIG_PDZ_Class_2	12842047	
LIG_PDZ_Class_2	9707552	
LIG_PDZ_Class_2	12444095	
CLV_PCSK_PC1ET2_1	1597471	
CLV_PCSK_PC1ET2_1	8276115	
CLV_PCSK_PC1ET2_1	2023902	
CLV_PCSK_PC1ET2_1	2015816	
TRG_ER_KDEL_1	7957217	
TRG_ER_KDEL_1	12581524	
TRG_ER_KDEL_1	1383243	
TRG_ER_KDEL_1	3545499	
TRG_ER_KDEL_1	9627991	
TRG_ER_KDEL_1	8586628	
TRG_ER_KDEL_1	2295602	
TRG_ER_KDEL_1	1373379	
TRG_ER_KDEL_1	9813083	
TRG_ER_KDEL_1	8034671	
TRG_ER_KDEL_1	1654327	
LIG_TYR_ITSM	12213321	
LIG_TYR_ITSM	19661287	
LIG_TYR_ITSM	11313386	
DOC_PP2B_LxvP_1	19560418	
DOC_PP2B_LxvP_1	10860980	
DOC_PP2B_LxvP_1	16407284	
DOC_PP2B_LxvP_1	3013843	
DOC_PP2B_LxvP_1	19285944	
DOC_PP2B_LxvP_1	11509611	
DOC_PP2B_LxvP_1	23486469	
TRG_PTS1	8769411	
TRG_PTS1	2654139	
TRG_PTS1	17157249	
TRG_PTS1	10088725	
TRG_PTS1	11060344	
TRG_PTS2	10891264	
LIG_UBA3_1	15361859	
CLV_Separin_Fungi	10403247	
CLV_Separin_Fungi	14585836	
CLV_Separin_Fungi	11069892	
CLV_Separin_Fungi	11081626	
LIG_CSL_BTD_1	20028974	
LIG_CSL_BTD_1	24290140	
LIG_CSL_BTD_1	16530045	
LIG_CSL_BTD_1	21102556	
LIG_CSL_BTD_1	20861242	
LIG_CSL_BTD_1	21475249	
LIG_CSL_BTD_1	21440926	
LIG_PCNA_PIPBox_1	9305916	
LIG_PCNA_PIPBox_1	9178907	
LIG_PCNA_PIPBox_1	8861913	
LIG_PCNA_PIPBox_1	15576034	
LIG_PCNA_PIPBox_1	10581271	
LIG_PCNA_PIPBox_1	17308348	
LIG_PCNA_PIPBox_1	10698951	
LIG_PCNA_PIPBox_1	14594808	
LIG_PCNA_PIPBox_1	11056476	
LIG_PCNA_PIPBox_1	12239216	
LIG_PCNA_PIPBox_1	10409728	
LIG_PCNA_PIPBox_1	10393198	
LIG_PCNA_PIPBox_1	9302295	
LIG_PCNA_PIPBox_1	9649448	
LIG_PCNA_PIPBox_1	11062484	
LIG_PCNA_PIPBox_1	11545742	
MOD_PK_1	885872	
TRG_LysEnd_GGAAcLL_1	12032548	
TRG_LysEnd_GGAAcLL_1	11859376	
TRG_LysEnd_GGAAcLL_1	11859375	
TRG_LysEnd_GGAAcLL_1	11208151	
TRG_LysEnd_GGAAcLL_1	1324923	
TRG_LysEnd_GGAAcLL_1	11390366	
TRG_LysEnd_GGAAcLL_2	12060753	
LIG_SH2_STAT6	9712048	
LIG_ULM_U2AF65_1	20037628	
LIG_ULM_U2AF65_1	15231733	
LIG_ULM_U2AF65_1	17589525	
LIG_ULM_U2AF65_1	16376933	
LIG_ULM_U2AF65_1	12718882	
DOC_MAPK_DCC_7	21386030	
DOC_MAPK_DCC_7	14734536	
DOC_MAPK_DCC_7	21070949	
DOC_MAPK_DCC_7	26538579	
DOC_MAPK_DCC_7	16364919	
MOD_SPalmitoyl_4	8524258	
LIG_BIR_III_1	14759516	
LIG_BIR_III_2	19153467	
LIG_BIR_III_2	12620238	
LIG_BIR_III_2	15580265	
LIG_BIR_III_2	20122400	
LIG_GLEBS_BUB3_1	9463388	
LIG_GLEBS_BUB3_1	11352911	
LIG_GLEBS_BUB3_1	17227844	
LIG_BIR_III_4	15580265	
LIG_HCF-1_HBM_1	10871379	
LIG_HCF-1_HBM_1	9658067	
LIG_HCF-1_HBM_1	20200153	
LIG_HCF-1_HBM_1	17612494	
LIG_HCF-1_HBM_1	9389645	
LIG_HCF-1_HBM_1	15705566	
LIG_HCF-1_HBM_1	18343819	
LIG_HCF-1_HBM_1	20581084	
LIG_HCF-1_HBM_1	14532282	
LIG_HCF-1_HBM_1	12235138	
LIG_HCF-1_HBM_1	16633736	
MOD_CK1_1	10606744	
MOD_CK1_1	20048001	
MOD_CK1_1	10734067	
DOC_SPAK_OSR1_1	14563843	
DOC_SPAK_OSR1_1	12386165	
DOC_SPAK_OSR1_1	17595523	
DOC_SPAK_OSR1_1	15930150	
DOC_SPAK_OSR1_1	17267545	
DOC_SPAK_OSR1_1	16263722	
DOC_SPAK_OSR1_1	17721439	
DOC_SPAK_OSR1_1	18270262	
DOC_CYCLIN_1	10713702	
DOC_CYCLIN_1	10995387	
DOC_CYCLIN_1	11463824	
DOC_CYCLIN_1	11584018	
DOC_CYCLIN_1	11438644	
DOC_CYCLIN_1	10373560	
DOC_CYCLIN_1	9889196	
DOC_CYCLIN_1	8684460	
DOC_CYCLIN_1	8637717	
DOC_CYCLIN_1	10673397	
DOC_CYCLIN_1	9892642	
DOC_CYCLIN_1	16707497	
DOC_CYCLIN_1	9488039	
DOC_CYCLIN_1	11340163	
DOC_CYCLIN_1	11027291	
DOC_CYCLIN_1	11884610	
DOC_CYCLIN_1	10982843	
DOC_CYCLIN_1	7753174	
DOC_CYCLIN_1	15105375	
DOC_CYCLIN_1	11238922	
DOC_CYCLIN_1	10884347	
DOC_CYCLIN_1	9891042	
DOC_CYCLIN_1	9199321	
DOC_CYCLIN_1	12501191	
DOC_CYCLIN_1	9234691	
LIG_TPR	11877417	
LIG_TPR	18182494	
LIG_TPR	10567422	
LIG_TPR	16531226	
LIG_TPR	10786835	
LIG_TPR	10593983	
TRG_NLS_MonoExtC_3	3000623	
TRG_NLS_MonoExtC_3	12890668	
TRG_NLS_MonoExtC_3	9891056	
TRG_NLS_MonoExtC_3	12852786	
TRG_NLS_MonoExtC_3	8955125	
TRG_NLS_MonoExtC_3	6096007	
TRG_NLS_MonoExtC_3	1340770	
TRG_NLS_MonoExtC_3	11050185	
TRG_NLS_MonoExtC_3	3614197	
TRG_NLS_MonoExtC_3	9918876	
TRG_NLS_MonoExtC_3	3123916	
TRG_NLS_MonoExtC_3	3054508	
TRG_NLS_MonoExtC_3	1584763	
TRG_NLS_MonoExtC_3	1333132	
TRG_NLS_MonoExtC_3	9732266	
TRG_NLS_MonoExtC_3	8391110	
TRG_NLS_MonoExtC_3	12399470	
TRG_NLS_MonoExtC_3	10745017	
LIG_FHA_2	11846567	
LIG_FHA_2	15367657	
LIG_FHA_2	15385968	
LIG_FHA_2	15749016	
LIG_FHA_2	14585996	
LIG_CaM_IQ_9	16120677	
LIG_CaM_IQ_9	12446675	
LIG_CaM_IQ_9	1824693	
LIG_CaM_IQ_9	10733575	
LIG_CaM_IQ_9	21439835	
LIG_CaM_IQ_9	20731332	
LIG_CaM_IQ_9	17634291	
LIG_CaM_IQ_9	8034741	
LIG_CaM_IQ_9	16338416	
LIG_CaM_IQ_9	11737147	
LIG_CaM_IQ_9	19473981	
LIG_CaM_IQ_9	14595117	
LIG_CaM_IQ_9	17910470	
LIG_CaM_IQ_9	21167176	
LIG_CaM_IQ_9	17991744	
LIG_CaM_IQ_9	21102557	
LIG_CaM_IQ_9	19305019	
LIG_CaM_IQ_9	7556088	
LIG_CaM_IQ_9	11754840	
LIG_CaM_IQ_9	21726526	
LIG_CaM_IQ_9	8900139	
LIG_CaM_IQ_9	16192280	
LIG_CaM_IQ_9	12967988	
LIG_CaM_IQ_9	21757287	
LIG_CaM_IQ_9	16505387	
LIG_CaM_IQ_9	21671662	
LIG_CaM_IQ_9	12689827	
LIG_CaM_IQ_9	21998309	
LIG_CaM_IQ_9	12051765	
LIG_KEPE_3	19033273	
LIG_WD40_WDR5_WIN_2	24788516	
LIG_DCNL_PONY_1	21940857	
LIG_DCNL_PONY_1	23201271	
LIG_Clathr_ClatBox_2	10748223	
LIG_Clathr_ClatBox_2	14981508	
LIG_Clathr_ClatBox_2	9603201	
LIG_Clathr_ClatBox_2	11382783	
LIG_SxIP_EBH_1	15616574	
LIG_SxIP_EBH_1	19632184	
LIG_WRPW_2	10433905	
LIG_WRPW_2	11159907	
CLV_PCSK_SKI1_1	9139737	
CLV_PCSK_SKI1_1	11163209	
DOC_AGCK_PIF_1	10856237	
DOC_AGCK_PIF_1	18204440	
DOC_AGCK_PIF_1	14604990	
DOC_AGCK_PIF_1	12167717	
DOC_AGCK_PIF_1	16790420	
DOC_AGCK_PIF_1	21531713	
DOC_AGCK_PIF_1	12434148	
DOC_AGCK_PIF_1	9218480	
DOC_AGCK_PIF_1	11500365	
LIG_LIR_Gen_1	21617041	
LIG_LIR_Gen_1	23805866	
LIG_LIR_Gen_1	21383079	
LIG_LIR_Gen_1	24528869	
LIG_LIR_Gen_1	18524774	
LIG_LIR_Gen_1	23209295	
LIG_LIR_Gen_1	19322194	
LIG_LIR_Gen_1	22308029	
LIG_LIR_Gen_1	20615880	
LIG_LIR_Gen_1	22354992	
LIG_LIR_Gen_1	18027972	
LIG_LIR_Gen_1	20010802	
LIG_LIR_Gen_1	19021777	
LIG_LIR_Gen_1	17580304	
LIG_LIR_Gen_1	19250911	
LIG_LIR_Gen_1	22505714	
LIG_LIR_Gen_1	19154346	
LIG_LIR_Gen_1	23043107	
LIG_LIR_Gen_1	21620860	
LIG_APCC_ABBAyCdc20_2	25287299	
LIG_BRCT_BRCA1_2	15125843	
LIG_BRCT_BRCA1_2	14576433	
LIG_EABR_CEP55_1	18948538	
LIG_EABR_CEP55_1	17853893	
LIG_EABR_CEP55_1	20176808	
MOD_ProDKin_1	15657432	
MOD_ProDKin_1	18084034	
MOD_ProDKin_1	11847223	
MOD_ProDKin_1	11781324	
MOD_ProDKin_1	12356758	
MOD_ProDKin_1	8226850	
MOD_ProDKin_1	8816480	
MOD_ProDKin_1	15963504	
MOD_ProDKin_1	10551811	
MOD_ProDKin_1	19595712	
MOD_ProDKin_1	9130707	
MOD_ProDKin_1	10329718	
MOD_ProDKin_1	11602244	
MOD_ProDKin_1	15952796	
MOD_ProDKin_1	8035827	
MOD_ProDKin_1	1651323	
MOD_ProDKin_1	12151396	
MOD_ProDKin_1	17875928	
MOD_ProDKin_1	16410316	
MOD_ProDKin_1	11904305	
MOD_ProDKin_1	11997522	
MOD_ProDKin_1	16954218	
MOD_ProDKin_1	12435397	
MOD_ProDKin_1	19776015	
MOD_ProDKin_1	8423803	
MOD_ProDKin_1	12692126	
MOD_ProDKin_1	8940068	
DEG_SCF_SKP2-CKS1_1	16209941	
DEG_SCF_SKP2-CKS1_1	12925736	
DEG_SCF_COI1_1	17637677	
DEG_SCF_COI1_1	18458331	
DEG_SCF_COI1_1	17637675	
DEG_SCF_COI1_1	20927106	
DEG_SCF_COI1_1	18547396	
TRG_AP2beta_CARGO_1	16903783	
TRG_AP2beta_CARGO_1	16516836	
DOC_PP1_SILK_1	12657641	
DOC_PP1_SILK_1	10748125	
DOC_PP1_SILK_1	17636256	
DOC_PP1_SILK_1	10075680	
DOC_PP1_SILK_1	19389623	
LIG_MYND_1	11733528	
LIG_MYND_1	12011100	
LIG_MYND_2	17560331	
LIG_MYND_2	23372760	
LIG_MYND_3	23413029	
LIG_MYND_3	19546213	
CLV_NRD_NRD_1	8294457	
TRG_NLS_MonoCore_2	11157753	
TRG_NLS_MonoCore_2	3000623	
TRG_NLS_MonoCore_2	12890668	
TRG_NLS_MonoCore_2	9891055	
TRG_NLS_MonoCore_2	12852786	
TRG_NLS_MonoCore_2	8955125	
TRG_NLS_MonoCore_2	6096007	
TRG_NLS_MonoCore_2	11050185	
TRG_NLS_MonoCore_2	9430704	
TRG_NLS_MonoCore_2	3614197	
TRG_NLS_MonoCore_2	16571801	
TRG_NLS_MonoCore_2	15498494	
TRG_NLS_MonoCore_2	1584763	
TRG_NLS_MonoCore_2	9778246	
TRG_NLS_MonoCore_2	10747034	
TRG_NLS_MonoCore_2	1333132	
TRG_NLS_MonoCore_2	15246256	
LIG_Rb_LxCxE_1	7923370	
LIG_Rb_LxCxE_1	21415856	
LIG_Rb_LxCxE_1	7890747	
LIG_Rb_LxCxE_1	10191192	
LIG_Rb_LxCxE_1	9724731	
LIG_Rb_LxCxE_1	10496602	
LIG_Rb_LxCxE_1	16118215	
LIG_Rb_LxCxE_1	23850291	
LIG_Rb_LxCxE_1	11336696	
LIG_Rb_LxCxE_1	9468140	
LIG_Rb_LxCxE_1	9712901	
LIG_Rb_LxCxE_1	8084002	
LIG_Rb_LxCxE_1	8493578	
LIG_Rb_LxCxE_1	11073989	
LIG_Rb_LxCxE_1	10944455	
LIG_Rb_LxCxE_1	19237565	
LIG_Rb_LxCxE_1	18812503	
LIG_Rb_LxCxE_1	9491888	
LIG_Rb_LxCxE_1	9234680	
LIG_Rb_LxCxE_1	10708410	
LIG_Rb_LxCxE_1	18455984	
LIG_Rb_LxCxE_1	9721205	
LIG_Rb_LxCxE_1	16873248	
LIG_Rb_LxCxE_1	7696881	
LIG_Rb_LxCxE_1	11259609	
LIG_Rb_LxCxE_1	8343202	
LIG_Rb_LxCxE_1	15722542	
LIG_Rb_LxCxE_1	18701596	
LIG_Rb_LxCxE_1	9468139	
LIG_Rb_LxCxE_1	26383606	
LIG_Rb_LxCxE_1	11226179	
LIG_Rb_LxCxE_1	10838613	
LIG_Rb_LxCxE_1	25640033	
LIG_Rb_LxCxE_1	24371076	
LIG_Rb_LxCxE_1	17214969	
LIG_Rb_LxCxE_1	9223517	
LIG_Rb_LxCxE_1	9178770	
LIG_Rb_LxCxE_1	8756626	
LIG_Rb_LxCxE_1	19004028	
LIG_Rb_LxCxE_1	16581787	
LIG_Rb_LxCxE_1	2839300	
LIG_Rb_LxCxE_1	8449399	
LIG_Rb_LxCxE_1	10449734	
LIG_Rb_LxCxE_1	18321963	
LIG_Rb_LxCxE_1	11484059	
LIG_Rb_LxCxE_1	27121059	
LIG_Rb_LxCxE_1	8490963	
LIG_Rb_LxCxE_1	9495340	
LIG_Rb_LxCxE_1	10644764	
LIG_Rb_LxCxE_1	1534854	
LIG_Rb_LxCxE_1	11571651	
LIG_Rb_LxCxE_1	9030690	
LIG_Rb_LxCxE_1	10640570	
LIG_Rb_LxCxE_1	22301153	
LIG_Rb_LxCxE_1	9697699	
LIG_Rb_LxCxE_1	26385761	
LIG_Rb_LxCxE_1	8676470	
LIG_Rb_LxCxE_1	21787785	
LIG_Rb_LxCxE_1	24027329	
LIG_Rb_LxCxE_1	8414517	
LIG_Rb_LxCxE_1	10951565	
LIG_Rb_LxCxE_1	11073990	
LIG_Rb_LxCxE_1	7538672	
LIG_Rb_LxCxE_1	7664747	
LIG_Rb_LxCxE_1	1857421	
LIG_Rb_LxCxE_1	9671483	
LIG_Rb_LxCxE_1	1312637	
LIG_Rb_LxCxE_1	26442585	
LIG_Rb_LxCxE_1	10779342	
LIG_Rb_LxCxE_1	21413015	
LIG_Rb_LxCxE_1	8657132	
LIG_Rb_LxCxE_1	21047797	
LIG_Rb_LxCxE_1	9326598	
LIG_EF_ALG2_ABM_1	20834162	
LIG_EF_ALG2_ABM_1	14999017	
LIG_EF_ALG2_ABM_1	10200558	
LIG_EF_ALG2_ABM_1	18940611	
LIG_EF_ALG2_ABM_1	22437941	
LIG_EF_ALG2_ABM_1	19143629	
LIG_EF_ALG2_ABM_1	16004603	
LIG_EF_ALG2_ABM_1	9880530	
LIG_EF_ALG2_ABM_1	17889823	
LIG_EF_ALG2_ABM_1	16957052	
LIG_EF_ALG2_ABM_1	24078636	
LIG_EF_ALG2_ABM_1	18256029	
LIG_EF_ALG2_ABM_1	11883939	
LIG_EF_ALG2_ABM_1	12445460	
LIG_EF_ALG2_ABM_1	17196169	
LIG_EF_ALG2_ABM_1	23924735	
DEG_SIAH_1	9334332	
DEG_SIAH_1	16615911	
DEG_SIAH_1	11389839	
DEG_SIAH_1	11752454	
DEG_SIAH_1	15459319	
DEG_SIAH_1	16085652	
DEG_SIAH_1	11483518	
DEG_SIAH_1	12626763	
DEG_SIAH_1	16230351	
DEG_SIAH_1	12072443	
DEG_SIAH_1	12810624	
DEG_CRL4_CDT2_1	19595719	
DEG_CRL4_CDT2_1	18703516	
DEG_CRL4_CDT2_1	16861906	
DEG_CRL4_CDT2_1	20606006	
DEG_CRL4_CDT2_1	21220508	
DEG_CRL4_CDT2_1	20932472	
DEG_CRL4_CDT2_1	22634751	
DEG_CRL4_CDT2_1	18794347	
LIG_Sin3_1	15235594	
LIG_Sin3_1	10918583	
LIG_Sin3_1	14705930	
LIG_Sin3_1	9000049	
LIG_Sin3_1	10551834	
LIG_Sin3_1	11106735	
LIG_Sin3_1	11101889	
LIG_Sin3_3	11571228	
LIG_Sin3_3	11238941	
LIG_Sin3_2	11477107	
LIG_Sin3_2	11438660	
LIG_SH2_GRB2	11063574	
LIG_SH2_GRB2	7504175	
LIG_SH2_GRB2	12475979	
LIG_SH2_GRB2	12975581	
LIG_SH2_GRB2	19602287	
LIG_SH2_GRB2	10706702	
LIG_SH2_GRB2	10811803	
LIG_SH2_GRB2	11684012	
LIG_SH2_GRB2	10880513	
LIG_SH2_GRB2	8940081	
LIG_SH2_GRB2	10356320	
LIG_SH2_GRB2	11500516	
LIG_SH2_GRB2	9185541	
LIG_SH2_GRB2	16729043	
LIG_SH2_GRB2	9710204	
LIG_WD40_WDR5_VDV_1	20716525	
LIG_WD40_WDR5_VDV_1	24788516	
LIG_FHA_1	12049740	
LIG_FHA_1	11846568	
LIG_FHA_1	16042389	
LIG_FHA_1	19318624	
LIG_FHA_1	15024067	
LIG_FHA_1	16231900	
LIG_APCC_ABBA_1	23707760	
LIG_APCC_ABBA_1	21460798	
LIG_APCC_ABBA_1	25669885	
LIG_APCC_ABBA_1	25505175	
LIG_APCC_ABBA_1	18498748	
MOD_CDK_SPxxK_3	23140174	
MOD_CDK_SPxxK_3	22334659	
MOD_CDK_SPxxK_3	18054859	
MOD_CDK_SPxxK_3	20473298	
MOD_CDK_SPxxK_3	22163316	
MOD_CDK_SPxxK_3	26183396	
MOD_CDK_SPxxK_3	19369249	
MOD_CDK_SPxxK_3	7673335	
MOD_CDK_SPxxK_3	17379183	
MOD_CDK_SPxxK_3	9109675	
MOD_CDK_SPxxK_3	8131745	
MOD_CDK_SPxxK_3	12056836	
MOD_CDK_SPxxK_3	21325496	
MOD_CDK_SPxxK_3	20937773	
MOD_CDK_SPxxK_3	19255425	
MOD_CDK_SPxxK_3	11698641	
MOD_CDK_SPxxK_3	12411508	
MOD_CDK_SPxxK_3	17121855	
MOD_CDK_SPxxK_3	15159402	
MOD_CDK_SPxxK_3	18847512	
MOD_CDK_SPxxK_3	18337751	
MOD_CDK_SPxxK_3	20890132	
MOD_CDK_SPxxK_3	21701498	
MOD_CDK_SPxxK_3	2141171	
MOD_CDK_SPxxK_3	14749395	
LIG_TRFH_1	18202258	
LIG_Integrin_isoDGR_1	18480047	
LIG_Integrin_isoDGR_1	18653538	
LIG_Integrin_isoDGR_1	17015452	
LIG_Integrin_isoDGR_1	9883843	
LIG_Integrin_isoDGR_1	17591922	
LIG_Integrin_isoDGR_1	1532572	
LIG_Integrin_isoDGR_1	16940508	
LIG_Integrin_isoDGR_1	8617364	
LIG_Integrin_isoDGR_1	1694173	
TRG_LysEnd_APsAcLL_1	15117318	
TRG_LysEnd_APsAcLL_1	10542217	
TRG_LysEnd_APsAcLL_1	19140243	
TRG_LysEnd_APsAcLL_1	9736718	
TRG_LysEnd_APsAcLL_1	8647812	
TRG_LysEnd_APsAcLL_1	12851402	
TRG_LysEnd_APsAcLL_1	9528942	
TRG_LysEnd_APsAcLL_1	9230070	
TRG_LysEnd_APsAcLL_1	9694892	
TRG_LysEnd_APsAcLL_1	12651740	
TRG_LysEnd_APsAcLL_1	10484781	
TRG_LysEnd_APsAcLL_1	15254202	
TRG_LysEnd_APsAcLL_1	15269005	
TRG_LysEnd_APsAcLL_1	13679604	
TRG_LysEnd_APsAcLL_1	15296492	
TRG_LysEnd_APsAcLL_1	7650016	
TRG_LysEnd_APsAcLL_1	9927649	
TRG_LysEnd_APsAcLL_1	1535555	
TRG_LysEnd_APsAcLL_1	7592972	
TRG_LysEnd_APsAcLL_1	10069811	
TRG_LysEnd_APsAcLL_1	9811606	
TRG_LysEnd_APsAcLL_1	10973972	
LIG_SH2_PTP2	11572799	
TRG_LysEnd_APsAcLL_3	9482728	
TRG_LysEnd_APsAcLL_3	11683416	
TRG_LysEnd_APsAcLL_3	7509809	
TRG_LysEnd_APsAcLL_3	12370188	
DEG_Kelch_KLHL3_1	24641320	
DEG_Kelch_KLHL3_1	23838290	
DEG_Nend_UBRbox_4	22020279	
DEG_Nend_UBRbox_4	16222293	
DEG_Nend_UBRbox_4	16217033	
DEG_Nend_UBRbox_4	22020282	
DEG_Nend_UBRbox_4	10783390	
LIG_LIR_Nem_3	19167332	
LIG_LIR_Nem_3	20083108	
MOD_SPalmitoyl_2	8626715	
MOD_SPalmitoyl_2	2661017	
MOD_LATS_1	17974916	
MOD_LATS_1	22589718	
MOD_LATS_1	18227151	
MOD_LATS_1	19962308	
MOD_LATS_1	17889654	
MOD_LATS_1	21952048	
MOD_LATS_1	18715118	
MOD_LATS_1	21383157	
MOD_LATS_1	21041410	
LIG_BRCT_BRCA1_1	16101277	
LIG_BRCT_BRCA1_1	18452305	
LIG_BRCT_BRCA1_1	17616665	
LIG_BRCT_BRCA1_1	14576433	
LIG_BRCT_BRCA1_1	16698035	
LIG_BRCT_BRCA1_1	17525340	
LIG_BRCT_BRCA1_1	15133502	
TRG_ENDOCYTIC_2	15254202	
TRG_ENDOCYTIC_2	9847342	
TRG_ENDOCYTIC_2	8509395	
TRG_ENDOCYTIC_2	8947032	
TRG_ENDOCYTIC_2	1918016	
TRG_ENDOCYTIC_2	9882340	
TRG_ENDOCYTIC_2	9175836	
TRG_ENDOCYTIC_2	20463077	
TRG_ENDOCYTIC_2	11208154	
TRG_ENDOCYTIC_2	9812899	
TRG_ENDOCYTIC_2	10637287	
TRG_ENDOCYTIC_2	11044456	
TRG_ENDOCYTIC_2	12768012	
LIG_WRPW_1	12972610	
LIG_WRPW_1	10022895	
DOC_PIKK_1	15964794	
DOC_PIKK_1	17507690	
DOC_PIKK_1	15758953	
DEG_Kelch_Keap1_1	16507366	
DEG_Kelch_Keap1_1	20452972	
DEG_Kelch_Keap1_1	22215675	
DEG_Kelch_Keap1_1	17046835	
DEG_Kelch_Keap1_1	19818716	
DEG_Kelch_Keap1_1	12167159	
DEG_Kelch_Keap1_1	20173742	
DEG_Kelch_Keap1_1	18391415	
DEG_Kelch_Keap1_1	22331464	
DEG_Kelch_Keap1_1	16888629	
DEG_Kelch_Keap1_1	23892546	
DEG_Kelch_Keap1_1	23318954	
CLV_PCSK_KEX2_1	10438739	
DEG_Kelch_Keap1_2	24366543	
DEG_Kelch_Keap1_2	17785452	
LIG_CSK_EPIYA_1	19380118	
LIG_CSK_EPIYA_1	24902122	
LIG_CSK_EPIYA_1	23383002	
LIG_CSK_EPIYA_1	21873224	
LIG_CSK_EPIYA_1	12446738	
MOD_ASX_betaOH_EGF	6688526	
LIG_Clathr_ClatBox_1	11239400	
LIG_Clathr_ClatBox_1	10748223	
LIG_Clathr_ClatBox_1	15659652	
LIG_Clathr_ClatBox_1	9603201	
LIG_Clathr_ClatBox_1	14757058	
LIG_Clathr_ClatBox_1	11301005	
LIG_Clathr_ClatBox_1	9545220	
LIG_Clathr_ClatBox_1	10692452	
LIG_Clathr_ClatBox_1	11577110	
LIG_Clathr_ClatBox_1	12121414	
LIG_Clathr_ClatBox_1	9169476	
LIG_Clathr_ClatBox_1	10655490	
LIG_Clathr_ClatBox_1	11161218	
LIG_Clathr_ClatBox_1	11517213	
DOC_PP1_MyPhoNE_1	15164081	
DOC_PP1_MyPhoNE_1	19389623	
MOD_GlcNHglycan	17369258	
MOD_GlcNHglycan	8163535	
LIG_RPA_C_Fungi	24910198	
LIG_APCC_Cbox_2	16481473	
LIG_APCC_Cbox_2	11566880	
LIG_APCC_Cbox_2	21118994	
LIG_Rb_pABgroove_1	12502741	
LIG_Rb_pABgroove_1	8413249	
LIG_Rb_pABgroove_1	8346196	
LIG_Rb_pABgroove_1	1534854	
LIG_Rb_pABgroove_1	17974914	
MOD_NEK2_1	21832156	
MOD_NEK2_1	12386167	
MOD_NEK2_1	17197699	
LIG_14-3-3_CterR_2	24408864	
LIG_14-3-3_CterR_2	23601647	
LIG_14-3-3_CterR_2	16155591	
LIG_14-3-3_CterR_2	10642536	
LIG_14-3-3_CterR_2	26743085	
LIG_EVH1_2	9808459	
LIG_EVH1_2	10433269	
LIG_EVH1_2	10798399	
LIG_EVH1_2	11491285	
LIG_EVH1_2	12223488	
LIG_EVH1_3	11553796	
LIG_EVH1_3	12437929	
LIG_EVH1_3	17229736	
LIG_EVH1_3	12372256	
LIG_EVH1_3	12213210	
LIG_EVH1_3	15265696	
LIG_AP2alpha_1	17986441	
LIG_AP2alpha_1	10428863	
LIG_AP2alpha_1	12057195	
LIG_LIR_Apic_2	22982544	
LIG_CID_NIM_1	25066235	
LIG_AP2alpha_2	10380931	
LIG_AP2alpha_2	11247302	
LIG_AP2alpha_2	10801423	
LIG_AP2alpha_2	10944104	
LIG_AP2alpha_2	8662627	
LIG_AP2alpha_2	12057195	
MOD_Plk_2-3	14968113	
MOD_Plk_2-3	18062778	
MOD_Plk_2-3	19004816	
LIG_PALB2_WD40_1	19609323	
LIG_PTAP_UEV_1	21068219	
LIG_PTAP_UEV_1	21070952	
LIG_PTAP_UEV_1	12802020	
LIG_PTAP_UEV_1	12525615	
LIG_PTAP_UEV_1	11427703	
LIG_PTAP_UEV_1	15218037	
LIG_PTAP_UEV_1	16332383	
LIG_PTAP_UEV_1	16188963	
LIG_PTAP_UEV_1	11595185	
LIG_PTAP_UEV_1	18367816	
LIG_PTAP_UEV_1	11805336	
LIG_PTAP_UEV_1	19210987	
LIG_PTAP_UEV_1	15256501	
LIG_PTAP_UEV_1	12379843	
LIG_PTAP_UEV_1	12970458	
LIG_PTAP_UEV_1	2014240	
LIG_PTAP_UEV_1	16352570	
LIG_PTAP_UEV_1	14581525	
LIG_PTAP_UEV_1	19158374	
LIG_PTAP_UEV_1	12915562	
LIG_PTAP_UEV_1	17229889	
LIG_PTAP_UEV_1	20504928	
LIG_PTAP_UEV_1	15858022	
LIG_AP_GAE_1	14665628	
LIG_AP_GAE_1	12483220	
LIG_AP_GAE_1	10477754	
LIG_WD40_WDR5_WIN_1	22665483	
LIG_WD40_WDR5_WIN_1	18840606	
LIG_WD40_WDR5_WIN_1	22266653	
LIG_WD40_WDR5_WIN_1	24788516	
DOC_PP2B_PxIxI_1	11877380	
DOC_PP2B_PxIxI_1	9660947	
DOC_PP2B_PxIxI_1	11000210	
DOC_PP2B_PxIxI_1	16569637	
DOC_PP2B_PxIxI_1	17502104	
DOC_PP2B_PxIxI_1	21689596	
DOC_PP2B_PxIxI_1	23468591	
DOC_PP2B_PxIxI_1	16738335	
DOC_PP2B_PxIxI_1	15189990	
LIG_RGD	2461939	
LIG_RGD	2191722	
LIG_RGD	9420328	
LIG_RGD	10785511	
LIG_RGD	15194773	
LIG_RGD	19738201	
LIG_RGD	8910476	
LIG_RGD	20554778	
LIG_RGD	22451694	
LIG_RGD	2653425	
LIG_RGD	6509552	
LIG_RGD	8350395	
LIG_RGD	7533862	
LIG_RGD	9533887	
LIG_RGD	2447074	
LIG_RGD	6325925	
LIG_RGD	1703206	
LIG_RGD	3024151	
LIG_TYR_ITIM	9052859	
LIG_TYR_ITIM	15128762	
LIG_TYR_ITIM	19661287	
LIG_TYR_ITIM	11278955	
LIG_TYR_ITIM	7718892	
LIG_TYR_ITIM	8986721	
LIG_WW_1	16901904	
LIG_WW_1	21205866	
LIG_WW_1	18353951	
LIG_WW_1	16716084	
LIG_WW_1	19812267	
LIG_WW_1	7644498	
LIG_WW_1	16188963	
LIG_WW_1	14998512	
LIG_WW_1	11095724	
LIG_WW_1	11828324	
LIG_WW_1	12970458	
LIG_WW_1	14563923	
LIG_WW_1	10074190	
LIG_WW_1	11046148	
LIG_WW_1	10932245	
LIG_WW_1	11278685	
LIG_WW_1	18667490	
LIG_WW_1	15678106	
LIG_WW_1	16352570	
LIG_WW_1	15469925	
LIG_WW_1	21685363	
LIG_WW_1	12915562	
LIG_WW_1	8764091	
LIG_WW_1	17437719	
LIG_WW_1	18334649	
LIG_WW_1	17502380	
LIG_WW_1	12450395	
TRG_NES_CRM1_1	11847229	
TRG_NES_CRM1_1	15331747	
TRG_NES_CRM1_1	8702720	
TRG_NES_CRM1_1	7543368	
TRG_NES_CRM1_1	19389996	
TRG_NES_CRM1_1	7634336	
TRG_NES_CRM1_1	12070164	
TRG_NES_CRM1_1	11805089	
TRG_NES_CRM1_1	8709278	
TRG_NES_CRM1_1	9679058	
TRG_NES_CRM1_1	9628873	
TRG_NES_CRM1_1	12171911	
TRG_NES_CRM1_1	11035805	
TRG_NES_CRM1_1	12944468	
TRG_NES_CRM1_1	11897663	
TRG_NES_CRM1_1	19339969	
TRG_NES_CRM1_1	10393933	
TRG_NES_CRM1_1	11591712	
LIG_HOMEOBOX	12409300	
LIG_HOMEOBOX	8600458	
LIG_HOMEOBOX	10052460	
LIG_HOMEOBOX	11279116	
LIG_HOMEOBOX	10094480	
LIG_HOMEOBOX	11342305	
CLV_TASPASE1	12482972	
DOC_MAPK_HePTP_8	22057126	
DOC_MAPK_HePTP_8	16364919	
DOC_MAPK_HePTP_8	18212044	
DOC_MAPK_HePTP_8	26538579	
DOC_MAPK_HePTP_8	16765894	
DOC_MAPK_HePTP_8	9857190	
DOC_MAPK_HePTP_8	11134045	
DOC_MAPK_HePTP_8	10702794	
DOC_MAPK_HePTP_8	23932588	
LIG_Mtr4_Trf4_2	25589546	
LIG_APCC_Cbox_1	22713866	
LIG_APCC_Cbox_1	19026787	
MOD_SUMO_for_1	12060666	
MOD_SUMO_for_1	11853669	
MOD_SUMO_for_1	12356736	
MOD_SUMO_for_1	12226657	
MOD_SUMO_for_1	9756909	
MOD_SUMO_for_1	11889051	
MOD_SUMO_for_1	10579719	
MOD_SUMO_for_1	12072434	
MOD_SUMO_for_1	11960997	
MOD_SUMO_for_1	9885291	
MOD_SUMO_for_1	11451954	
MOD_SUMO_for_1	17283066	
MOD_SUMO_for_1	12144530	
MOD_SUMO_for_1	16371476	
MOD_SUMO_for_1	10562558	
MOD_SUMO_for_1	15465032	
MOD_SUMO_for_1	17610843	
MOD_SUMO_for_1	10212234	
MOD_SUMO_for_1	12200128	
MOD_SUMO_for_1	11514557	
MOD_SUMO_for_1	12032081	
MOD_SUMO_for_1	12354770	
MOD_SUMO_for_1	15123625	
MOD_SUMO_for_1	11731474	
MOD_SUMO_for_1	14701874	
MOD_SUMO_for_1	11413191	
MOD_SUMO_for_1	10779416	
MOD_SUMO_for_1	11861864	
MOD_SUMO_for_1	11779867	
MOD_SUMO_for_1	12114521	
MOD_SUMO_for_1	12161447	
LIG_EH1_1	16309560	
LIG_EH1_1	16762837	
LIG_EH1_1	10022895	
LIG_EH1_1	10748198	
LIG_EH1_1	8898227	
LIG_EH1_1	9367988	
LIG_EH1_1	16287856	
LIG_EH1_1	16314497	
LIG_EH1_1	12154126	
LIG_EH1_1	10811620	
CLV_Separin_Metazoa	11509732	
CLV_Separin_Metazoa	22542101	
CLV_Separin_Metazoa	12297314	
LIG_SH3_1	21653319	
LIG_SH3_1	9763511	
LIG_SH3_1	8294442	
LIG_SH3_1	11707259	
LIG_SH3_3	12426371	
LIG_SH3_3	10391251	
LIG_SH3_3	9121467	
LIG_SH3_3	11040125	
LIG_SH3_3	15992821	
LIG_SH3_3	10970852	
LIG_SH3_3	17881440	
LIG_SH3_3	9135122	
LIG_SH3_3	10648568	
LIG_SH3_3	10903901	
LIG_SH3_3	18467332	
LIG_SH3_3	11518702	
MOD_PKB_1	17428466	
MOD_PKB_1	18466115	
MOD_PKB_1	11274386	
MOD_PKB_1	11715018	
MOD_PKB_1	9346240	
MOD_PKB_1	9812896	
MOD_PKB_1	14690436	
MOD_PKB_1	12434148	
MOD_PKB_1	11463845	
MOD_PKB_1	12244301	
MOD_PKB_1	10485710	
MOD_PKB_1	19058874	
LIG_SH3_5	10508163	
LIG_SH3_5	17617578	
DOC_AGCK_PIF_2	16219676	
DOC_AGCK_PIF_2	10764742	
DOC_AGCK_PIF_2	10698939	
LIG_EVH1_1	10990454	
LIG_EVH1_1	8980130	
LIG_EVH1_1	9693373	
LIG_EVH1_1	20044140	
LIG_EVH1_1	10892742	
LIG_EVH1_1	8861907	
LIG_EVH1_1	10801818	
LIG_EVH1_1	9312002	
LIG_EVH1_1	11911879	
LIG_EVH1_1	16631741	
LIG_EVH1_1	10747096	
LIG_EVH1_1	10338211	
MOD_PIKK_1	15788536	
MOD_PIKK_1	9038175	
MOD_PIKK_1	8407951	
MOD_PIKK_1	2507541	
MOD_PIKK_1	16163388	
MOD_PIKK_1	16397295	
MOD_PIKK_1	20818375	
MOD_PIKK_1	11571274	
MOD_PIKK_1	15210935	
MOD_PIKK_1	12183412	
MOD_PIKK_1	11390642	
MOD_PIKK_1	10973490	
MOD_PIKK_1	11331603	
MOD_PIKK_1	9733515	
MOD_PIKK_1	10766245	
MOD_PIKK_1	11146653	
MOD_PIKK_1	16436514	
MOD_PIKK_1	11375976	
MOD_PIKK_1	11459832	
MOD_PIKK_1	16540648	
MOD_PIKK_1	8464713	
MOD_PIKK_1	14729972	
MOD_PIKK_1	9168116	
MOD_PIKK_1	14654783	
MOD_PIKK_1	11140636	
LIG_CaMK_CASK_1	9952408	
LIG_CaMK_CASK_1	21763699	
LIG_CaMK_CASK_1	9753324	
LIG_CaMK_CASK_1	12040031	
DEG_SCF_TRCP1_1	24184097	
DEG_SCF_TRCP1_1	16885022	
DEG_SCF_TRCP1_1	15743413	
DEG_SCF_TRCP1_1	11238952	
DEG_SCF_TRCP1_1	14674748	
DEG_SCF_TRCP1_1	14532120	
DEG_SCF_TRCP1_1	12902344	
DEG_SCF_TRCP1_1	15337770	
DEG_SCF_TRCP1_1	9990852	
DEG_SCF_TRCP1_1	12791266	
DEG_SCF_TRCP1_1	18363964	
DEG_SCF_TRCP1_1	18378770	
DEG_SCF_TRCP1_1	19171756	
DEG_SCF_TRCP1_1	10230406	
DEG_SCF_TRCP1_1	19084407	
DEG_SCF_TRCP1_1	12820959	
DEG_SCF_TRCP1_1	17053147	
DEG_SCF_TRCP1_1	9990853	
DEG_SCF_TRCP1_1	10497169	
DEG_SCF_TRCP1_1	15082796	
DEG_SCF_TRCP1_1	12482991	
DEG_SCF_TRCP1_1	14561767	
DEG_SCF_TRCP1_1	14523018	
LIG_EF_ALG2_ABM_2	24078636	
LIG_EF_ALG2_ABM_2	18256029	
LIG_EF_ALG2_ABM_2	20834162	
LIG_SPRY_1	20561531	
LIG_CtBP_PxDLS_1	10978285	
LIG_CtBP_PxDLS_1	10375506	
LIG_CtBP_PxDLS_1	9524128	
LIG_CtBP_PxDLS_1	10359772	
LIG_CtBP_PxDLS_1	11965542	
LIG_CtBP_PxDLS_1	10369679	
LIG_CtBP_PxDLS_1	7479821	
LIG_CtBP_PxDLS_1	11940669	
LIG_CtBP_PxDLS_1	10766745	
LIG_CtBP_PxDLS_1	9535825	
LIG_CtBP_PxDLS_1	11504872	
LIG_CtBP_PxDLS_1	10567582	
LIG_CtBP_PxDLS_1	12535528	
LIG_CtBP_PxDLS_1	12444977	
LIG_CtBP_PxDLS_1	10756197	
LIG_CtBP_PxDLS_1	11022042	
LIG_CtBP_PxDLS_1	12714599	
LIG_CtBP_PxDLS_1	11509661	
LIG_CtBP_PxDLS_1	9843507	
LIG_CtBP_PxDLS_1	10995736	
LIG_CtBP_PxDLS_1	9858600	
LIG_CtBP_PxDLS_1	12052894	
LIG_LIR_LC3C_4	23022382	
MOD_CDK_SPK_2	15145941	
MOD_CDK_SPK_2	12769842	
MOD_CDK_SPK_2	17043241	
MOD_CDK_SPK_2	20807815	
MOD_CDK_SPK_2	16371510	
MOD_CDK_SPK_2	10082583	
MOD_CDK_SPK_2	12824184	
MOD_CDK_SPK_2	18524952	
MOD_CDK_SPK_2	11278334	
MOD_CDK_SPK_2	12058066	
MOD_CDK_SPK_2	12719431	
MOD_CDK_SPK_2	16198290	
MOD_CDK_SPK_2	17466630	
MOD_CDK_SPK_2	11733001	
MOD_CDK_SPK_2	21565170	
MOD_CDK_SPK_2	1756735	
TRG_ER_diArg_1	12699619	
TRG_ER_diArg_1	10197533	
TRG_ER_diArg_1	18083825	
TRG_ER_diArg_1	11641431	
TRG_ER_diArg_1	16868027	
TRG_ER_diArg_1	8157008	
TRG_ER_diArg_1	19420140	
TRG_ER_diArg_1	15713669	
TRG_ER_diArg_1	19679663	
TRG_ER_diArg_1	19452503	
TRG_ER_diArg_1	12626409	
TRG_ER_diArg_1	11312291	
TRG_ER_diArg_1	11163274	
TRG_ER_diArg_1	8970721	
TRG_ER_diArg_1	18782866	
TRG_ER_diArg_1	20634894	
TRG_ER_diArg_1	12878702	
TRG_ER_diArg_1	21189250	
TRG_ER_diArg_1	10445036	
TRG_ER_diArg_1	20100836	
TRG_ER_diArg_1	22411985	
TRG_ER_diArg_1	10939334	
TRG_ER_diArg_1	19263245	
MOD_OFUCOSY	1900431	
MOD_OFUCOSY	2393398	
MOD_OFUCOSY	8631761	
MOD_PKA_1	16426231	
MOD_PKA_1	10805756	
MOD_PKA_1	18299387	
MOD_PKA_1	14532002	
MOD_PKA_1	10642527	
MOD_PKA_1	16769902	
MOD_PKA_1	20067577	
MOD_PKA_1	9030583	
MOD_PKA_1	15465019	
MOD_PKA_1	18799741	
MOD_PKA_1	16476742	
MOD_PKA_1	17988215	
MOD_PKA_1	10601308	
MOD_PKA_1	12351631	
MOD_PKA_1	12851456	
MOD_PKA_1	10908600	
MOD_PKA_1	14981079	
MOD_PKA_1	7510709	
MOD_PKA_1	18202122	
MOD_PKA_1	14701748	
MOD_PKA_1	16387847	
MOD_PKA_1	17913709	
MOD_NMyristoyl	16757566	
MOD_NMyristoyl	8313462	
MOD_NMyristoyl	18996921	
MOD_NMyristoyl	7990966	
MOD_NMyristoyl	20059949	
MOD_NMyristoyl	12357034	
MOD_NMyristoyl	18376416	
MOD_NMyristoyl	16603631	
MOD_NMyristoyl	16249095	
MOD_NMyristoyl	10196310	
MOD_NMyristoyl	16051612	
MOD_NMyristoyl	15452271	
MOD_NMyristoyl	2542570	
MOD_NMyristoyl	12805216	
MOD_NMyristoyl	2547372	
MOD_NMyristoyl	7682550	
MOD_NMyristoyl	8463289	
MOD_NMyristoyl	7791757	
MOD_NMyristoyl	14998327	
MOD_NMyristoyl	8524402	
MOD_NMyristoyl	18519563	
MOD_NMyristoyl	7630423	
MOD_NMyristoyl	2825164	
MOD_NMyristoyl	15843525	
MOD_NMyristoyl	8824261	
MOD_NMyristoyl	12798691	
MOD_NMyristoyl	19524571	
MOD_NMyristoyl	10383444	
MOD_NMyristoyl	12218175	
MOD_NMyristoyl	21740913	
MOD_NMyristoyl	10207003	
MOD_NMyristoyl	11696592	
MOD_NMyristoyl	16472755	
MOD_NMyristoyl	19616509	
MOD_NMyristoyl	3352735	
MOD_NMyristoyl	15196017	
MOD_NMyristoyl	1094241	
MOD_NMyristoyl	14656443	
MOD_NMyristoyl	17258463	
MOD_NMyristoyl	10942419	
MOD_NMyristoyl	7491754	
MOD_NMyristoyl	17716801	
MOD_NMyristoyl	9188589	
MOD_NMyristoyl	18345609	
MOD_NMyristoyl	15634010	
MOD_NMyristoyl	21520322	
MOD_NMyristoyl	17398095	
MOD_NMyristoyl	15147902	
MOD_NMyristoyl	10604467	
MOD_NMyristoyl	1850017	
MOD_NMyristoyl	20213681	
MOD_NMyristoyl	8335009	
MOD_NMyristoyl	14765114	
MOD_NMyristoyl	1548757	
MOD_CAAXbox	15451670	
MOD_CAAXbox	9677305	
LIG_IRF3_LxIS_1	27302953	
LIG_IRF3_LxIS_1	25636800	
MOD_TYR_CSK	2480346	
MOD_TYR_CSK	1722201	
MOD_TYR_CSK	7685657	
MOD_TYR_CSK	8513497	
MOD_TYR_CSK	2420005	
